{
  "kind": "collectionType",
  "collectionName": "tutorials",
  "info": {
    "singularName": "tutorial",
    "pluralName": "tutorials",
    "displayName": "Tutorial",
    "description": ""
  },
  "options": {
    "draftAndPublish": true
  },
  "pluginOptions": {},
  "attributes": {
    "title": {
      "type": "string",
      "required": true,
      "minLength": 4
    },
    "slug": {
      "type": "customField",
      "options": {
        "pattern": "title"
      },
      "customField": "plugin::slug.slug"
    },
    "type": {
      "type": "enumeration",
      "enum": [
        "video",
        "text"
      ],
      "default": "video"
    },
    "url": {
      "type": "string"
    },
    "content": {
      "type": "richtext"
    },
    "classrooms": {
      "type": "relation",
      "relation": "oneToMany",
      "target": "api::classroom.classroom",
      "mappedBy": "tutorial"
    }
  }
}
